%YAML 1.1
%TAG !u! tag:unity3d.com,2011:
--- !u!114 &11400000
MonoBehaviour:
  m_ObjectHideFlags: 0
  m_CorrespondingSourceObject: {fileID: 0}
  m_PrefabInstance: {fileID: 0}
  m_PrefabAsset: {fileID: 0}
  m_GameObject: {fileID: 0}
  m_Enabled: 1
  m_EditorHideFlags: 0
  m_Script: {fileID: 11500000, guid: 54d21f6ece3b46479f0c328f8c6007e0, type: 3}
  m_Name: Blue to Purple - Vertical
  m_EditorClassIdentifier: 
  colorMode: 3
  topLeft: {r: 0.4454254, g: 0.47380975, b: 0.8679245, a: 1}
  topRight: {r: 0.754717, g: 0, b: 0.031981558, a: 1}
  bottomLeft: {r: 0.6132076, g: 0, b: 0.55700415, a: 1}
  bottomRight: {r: 0.05254536, g: 0.33962262, b: 0.07031911, a: 1}
